<?xml version="1.0" encoding="UTF-8"?>
<svg width="31px" height="31px" viewBox="0 0 31 31" version="1.1" xmlns="http://www.w3.org/2000/svg" xmlns:xlink="http://www.w3.org/1999/xlink">
    <!-- Generator: Sketch 41.2 (35397) - http://www.bohemiancoding.com/sketch -->
    <title>Group 22</title>
    <desc>Created with Sketch.</desc>
    <defs></defs>
    <g id="Page-1" stroke="none" stroke-width="1" fill="none" fill-rule="evenodd">
        <g id="menu" transform="translate(-556.000000, -2057.000000)">
            <g id="Dop" transform="translate(0.000000, 1904.000000)">
                <g id="Group-39" transform="translate(484.000000, 154.000000)">
                    <g id="Group-22" transform="translate(73.000000, 0.000000)">
                        <g id="check" transform="translate(10.000000, 10.000000)" fill="#C9A74B">
                            <g id="Check">
                                <path d="M3.90251704,10.9991551 C3.56073133,10.9991551 3.23701704,10.8396551 3.02958847,10.5646551 L0.222231327,6.855298 C-0.143125816,6.37365514 -0.0480543874,5.68772657 0.434374184,5.32236943 C0.91758847,4.95544086 1.60351704,5.05208372 1.96887418,5.53451229 L3.81608847,7.97336943 L8.46044561,0.515369431 C8.78023133,0.0030837163 9.45594561,-0.154059141 9.96980276,0.165726573 C10.4828742,0.484726573 10.6408028,1.16044086 10.3202313,1.674298 L4.83280276,10.4821551 C4.6426599,10.7893694 4.31344561,10.9810837 3.95280276,10.9975837 C3.93551704,10.9991551 3.91980276,10.9991551 3.90251704,10.9991551 L3.90251704,10.9991551 Z" id="Shape"></path>
                            </g>
                        </g>
                        <circle id="Oval-98" stroke="#C9A74B" cx="14.5" cy="14.5" r="14.5"></circle>
                    </g>
                </g>
            </g>
        </g>
    </g>
</svg>