<?xml version="1.0" encoding="UTF-8" standalone="no"?>
<svg width="103px" height="114px" viewBox="0 0 103 114" version="1.1" xmlns="http://www.w3.org/2000/svg" xmlns:xlink="http://www.w3.org/1999/xlink">
    <!-- Generator: sketchtool 3.7 (28169) - http://www.bohemiancoding.com/sketch -->
    <title>822D3EBD-0172-4053-97F6-86787FB4B29F</title>
    <desc>Created with sketchtool.</desc>
    <defs></defs>
    <g id="Page-1" stroke="none" stroke-width="1" fill="none" fill-rule="evenodd">
        <g id="EC_mob" transform="translate(-735.000000, -1707.000000)">
            <g id="Zakaz" transform="translate(204.000000, 1576.000000)">
                <g id="Group" transform="translate(531.000000, 132.000000)">
                    <g id="Group-33">
                        <polygon id="Polygon-6" fill="#FAF6EC" transform="translate(51.119051, 67.944292) rotate(90.000000) translate(-51.119051, -67.944292) " points="51.1190514 17 95.2381027 42.4721462 95.2381027 93.4164385 51.1190514 118.888585 7 93.4164385 7 42.4721462"></polygon>
                        <path d="M47.4438251,4.94684445 C46.6006171,5.4355218 45.9682206,6.01521859 45.5466167,6.68595221 C45.9682206,7.12672002 46.2652554,7.63934445 46.4377297,8.22384089 C46.6102041,8.80833733 46.69644,9.31138 46.69644,9.73298399 C46.69644,10.0970965 46.6245767,10.4995307 46.4808481,10.9402985 C46.3371195,11.3810663 46.1071571,11.7882913 45.7909541,12.1619857 C45.4747511,12.5356802 45.0579443,12.8518784 44.5405213,13.11059 C44.0230982,13.3693015 43.4002834,13.4986553 42.6720584,13.4986553 C42.0588162,13.4794915 41.5222374,13.3549286 41.0623057,13.1249628 C40.6023741,12.894997 40.2143126,12.5883805 39.8981096,12.2051041 C39.5819066,11.8218278 39.3423625,11.3714848 39.1794701,10.8540617 C39.0165776,10.3366386 38.9351326,9.79047803 38.9351326,9.2155635 C38.9351326,8.62148515 39.0596956,7.97950689 39.3088252,7.28960945 C39.5579548,6.59971201 39.9268528,5.91461581 40.4155301,5.23430028 C40.9042075,4.55398475 41.5126496,3.90242472 42.2408746,3.27960065 C42.9690997,2.65677657 43.8075042,2.1010342 44.7561131,1.61235685 C45.7047221,1.12367949 46.7635072,0.735618007 47.9325,0.448160741 C49.1014929,0.160703476 50.3758677,0.0169769989 51.7556625,0.0169769989 C53.3270956,0.0169769989 54.903296,0.208612301 56.4843109,0.591888655 C58.0653259,0.975165009 59.4834271,1.60756151 60.7386572,2.48909712 C61.9938872,3.37063273 63.0143452,4.51565367 63.8000617,5.92419427 C64.5857783,7.33273487 64.9786306,9.07182524 64.9786306,11.1415175 C64.9786306,12.1380361 64.801368,13.1680758 64.4468374,14.2316677 C64.0923067,15.2952596 63.4407467,16.4833985 62.4921377,17.79612 C61.5435288,19.1088415 60.226036,20.5892242 58.5396201,22.2373125 C56.8532041,23.8854008 54.6781435,25.7921721 52.0143728,27.9576835 C50.9220352,28.8392191 49.9830222,29.6872053 49.1973057,30.5016676 C48.4115892,31.3161298 47.7504474,32.0778802 47.2138605,32.7869414 C46.6772736,33.4960027 46.2604668,34.13319 45.9634276,34.6985227 C45.6663884,35.2638553 45.479544,35.7381527 45.4028887,36.121429 L56.9298675,36.4376304 L57.3897968,36.4376304 C57.9838751,36.4376304 58.5300357,36.3849307 59.028295,36.2795297 C59.5265543,36.1741287 59.9481519,35.9777025 60.2931006,35.6902453 C60.6380494,35.402788 60.9063388,35.0147265 61.097977,34.5260492 C61.2896151,34.0373718 61.3854328,33.4001844 61.3854328,32.6144679 L65.1223586,32.6144679 L64.6624292,42.186747 L38.8776414,42.186747 C38.8776414,40.1553823 39.1459309,38.3396378 39.6825178,36.739459 C40.2191047,35.1392803 40.9185735,33.682852 41.7809453,32.3701305 C42.6433171,31.0574089 43.625448,29.8501065 44.7273675,28.748187 C45.8292871,27.6462675 46.9455627,26.5683189 48.0762279,25.514309 C49.4943505,24.1920055 50.7016529,22.9367943 51.6981714,21.7486376 C52.6946899,20.5604809 53.5091399,19.4106691 54.1415459,18.2991677 C54.7739519,17.1876662 55.2338766,16.1049268 55.5213339,15.0509168 C55.8087912,13.9969068 55.9525176,12.9333309 55.9525176,11.8601571 C55.9525176,10.9211301 55.8662818,9.99648972 55.6938074,9.08620838 C55.521333,8.17592704 55.2195074,7.361477 54.7883215,6.64283384 C54.3571356,5.92419067 53.7774388,5.339703 53.0492138,4.88935329 C52.3209887,4.43900357 51.4011392,4.21383209 50.2896378,4.21383209 C49.2356278,4.21383209 48.2870331,4.4581671 47.4438251,4.94684445 Z" id="2" stroke="#C9A74B" fill="#C9A74B"></path>
                    </g>
                </g>
            </g>
        </g>
    </g>
</svg>