<?xml version="1.0" encoding="UTF-8" standalone="no"?>
<svg width="92px" height="92px" viewBox="0 0 92 92" version="1.1" xmlns="http://www.w3.org/2000/svg" xmlns:xlink="http://www.w3.org/1999/xlink">
    <!-- Generator: sketchtool 3.7 (28169) - http://www.bohemiancoding.com/sketch -->
    <title>9188EECE-9C1F-46A9-BD34-082298B4EB55</title>
    <desc>Created with sketchtool.</desc>
    <defs>
        <linearGradient x1="50%" y1="-29.8697917%" x2="50%" y2="218.834635%" id="linearGradient-1">
            <stop stop-color="#E4C759" offset="0%"></stop>
            <stop stop-color="#8B5E2A" offset="100%"></stop>
        </linearGradient>
    </defs>
    <g id="Page-1" stroke="none" stroke-width="1" fill="none" fill-rule="evenodd">
        <g id="Main" transform="translate(-804.000000, -1893.000000)">
            <g id="Preim" transform="translate(0.000000, 1560.000000)">
                <g id="Group-23">
                    <g id="Group-22" transform="translate(161.000000, 215.000000)">
                        <g id="Group-20" transform="translate(644.000000, 119.000000)">
                            <g id="Group-6">
                                <path d="M45,90 C69.8528137,90 90,69.8528137 90,45 C90,20.1471863 69.8528137,0 45,0 C20.1471863,0 0,20.1471863 0,45 C0,69.8528137 20.1471863,90 45,90 Z" id="Oval-1" stroke="url(#linearGradient-1)"></path>
                                <g id="1479331847_Streamline-94" transform="translate(24.000000, 22.000000)" fill="url(#linearGradient-1)">
                                    <g id="Expanded">
                                        <g id="Group">
                                            <path d="M33.2272727,46 L9.77272727,46 C9.26259091,46 8.83747727,45.61475 8.79838636,45.1154583 L6.90931818,21.0315833 C3.02465909,20.5888333 0,17.3429583 0,13.4166667 C0,9.18179167 3.59440909,5.60529167 7.84945455,5.60529167 C8.73877273,5.60529167 9.61147727,5.77491667 10.4255455,6.103625 C11.7976364,2.40445833 16.0653864,0 21.5,0 C26.6052727,0 30.1762273,2.024 32.3868182,6.18125 C33.2536591,5.80175 34.1928182,5.60433333 35.1505455,5.60433333 C39.4055909,5.60529167 43,9.18179167 43,13.4166667 C43,17.3429583 39.9753409,20.5888333 36.0906818,21.0315833 L34.2016136,45.1154583 C34.1625227,45.61475 33.7374091,46 33.2272727,46 L33.2272727,46 Z M10.6776818,44.0833333 L32.3213409,44.0833333 L34.2065,20.0512083 C34.2465682,19.5519167 34.6716818,19.1666667 35.1818182,19.1666667 C38.4156136,19.1666667 41.0454545,16.5877917 41.0454545,13.4166667 C41.0454545,9.94270833 37.9387045,7.52195833 35.1505455,7.52195833 C34.1908636,7.52195833 33.2947045,7.78454167 32.4884545,8.30491667 C32.2490227,8.45920833 31.9499773,8.50329167 31.6753636,8.42279167 C31.3997727,8.34325 31.1740227,8.14966667 31.0577273,7.89091667 C29.2185,3.815125 26.1821136,1.91666667 21.5,1.91666667 C16.4602045,1.91666667 12.6468864,4.23104167 12.0106818,7.67529167 C11.9520455,7.99154167 11.7360682,8.25795833 11.4340909,8.38445833 C11.1330909,8.512875 10.7861591,8.48220833 10.5125227,8.30491667 C9.70627273,7.78454167 8.81011364,7.52195833 7.85043182,7.52195833 C5.06129545,7.52195833 1.95454545,9.94270833 1.95454545,13.4166667 C1.95454545,16.5877917 4.58438636,19.1666667 7.81818182,19.1666667 C8.32831818,19.1666667 8.75343182,19.5519167 8.79252273,20.0512083 L10.6776818,44.0833333 L10.6776818,44.0833333 Z" id="Shape"></path>
                                            <path d="M33.8380682,38.3333333 L9.16193182,38.3333333 C8.62247727,38.3333333 8.18465909,37.9049583 8.18465909,37.375 C8.18465909,36.8450417 8.62247727,36.4166667 9.16193182,36.4166667 L33.8380682,36.4166667 C34.3775227,36.4166667 34.8153409,36.8450417 34.8153409,37.375 C34.8153409,37.9049583 34.3775227,38.3333333 33.8380682,38.3333333 L33.8380682,38.3333333 Z" id="Shape"></path>
                                            <path d="M16.6136364,38.3333333 C16.0741818,38.3333333 15.6363636,37.9049583 15.6363636,37.375 L15.6363636,29.7083333 C15.6363636,29.178375 16.0741818,28.75 16.6136364,28.75 C17.1530909,28.75 17.5909091,29.178375 17.5909091,29.7083333 L17.5909091,37.375 C17.5909091,37.9049583 17.1530909,38.3333333 16.6136364,38.3333333 L16.6136364,38.3333333 Z" id="Shape"></path>
                                            <path d="M21.5,38.3333333 C20.9605455,38.3333333 20.5227273,37.9049583 20.5227273,37.375 L20.5227273,27.7916667 C20.5227273,27.2617083 20.9605455,26.8333333 21.5,26.8333333 C22.0394545,26.8333333 22.4772727,27.2617083 22.4772727,27.7916667 L22.4772727,37.375 C22.4772727,37.9049583 22.0394545,38.3333333 21.5,38.3333333 L21.5,38.3333333 Z" id="Shape"></path>
                                            <path d="M26.3863636,38.3333333 C25.8469091,38.3333333 25.4090909,37.9049583 25.4090909,37.375 L25.4090909,29.7083333 C25.4090909,29.178375 25.8469091,28.75 26.3863636,28.75 C26.9258182,28.75 27.3636364,29.178375 27.3636364,29.7083333 L27.3636364,37.375 C27.3636364,37.9049583 26.9258182,38.3333333 26.3863636,38.3333333 L26.3863636,38.3333333 Z" id="Shape"></path>
                                        </g>
                                    </g>
                                </g>
                            </g>
                        </g>
                    </g>
                </g>
            </g>
        </g>
    </g>
</svg>