<?xml version="1.0" encoding="UTF-8" standalone="no"?>
<svg width="20px" height="269px" viewBox="0 0 20 269" version="1.1" xmlns="http://www.w3.org/2000/svg" xmlns:xlink="http://www.w3.org/1999/xlink">
    <!-- Generator: sketchtool 3.7 (28169) - http://www.bohemiancoding.com/sketch -->
    <title>95D137DC-93F2-46C6-A056-546605AB7A0A</title>
    <desc>Created with sketchtool.</desc>
    <defs>
        <linearGradient x1="50%" y1="-60.494301%" x2="50%" y2="302.551138%" id="linearGradient-1">
            <stop stop-color="#E4C759" offset="0%"></stop>
            <stop stop-color="#8B5E2A" offset="100%"></stop>
        </linearGradient>
    </defs>
    <g id="Page-1" stroke="none" stroke-width="1" fill="none" fill-rule="evenodd">
        <g id="Main" transform="translate(-710.000000, -1798.000000)" fill="url(#linearGradient-1)">
            <g id="Preim" transform="translate(0.000000, 1560.000000)">
                <path d="M591.671039,373.202353 L591.671039,377.49808 C591.671039,377.736733 591.668901,377.96899 591.664624,378.194857 C591.660347,378.420725 591.653932,378.635935 591.645378,378.840495 C591.636825,379.045054 591.626133,379.230434 591.613302,379.396638 C591.600472,379.562843 591.585503,379.701344 591.568396,379.812148 L595.096757,379.799363 C595.481672,379.799363 595.86658,379.735439 596.251494,379.607589 C596.636408,379.479739 596.978549,379.268791 597.277926,378.974736 C597.577304,378.680682 597.821079,378.292877 598.009259,377.81131 C598.19744,377.329743 598.291528,376.735251 598.291528,376.027816 L600.023633,376.027816 L599.869668,381.793807 L586,381.793807 L586,380.067846 C586.290824,380.050799 586.553845,380.020968 586.78907,379.978351 C587.024295,379.935735 587.221026,379.84198 587.379269,379.697083 C587.537511,379.552187 587.659399,379.330584 587.744935,379.032268 C587.830472,378.733953 587.873239,378.320578 587.873239,377.792133 L587.873239,367.755984 C587.873239,367.517331 587.875378,367.282944 587.879654,367.052814 C587.883931,366.822685 587.890346,366.603213 587.8989,366.394392 C587.907454,366.185571 587.918146,365.99593 587.930976,365.825464 C587.943806,365.654997 587.958775,365.514365 587.975882,365.403562 L586,365.480271 L586,363.460257 L599.151166,363.460257 L599.30513,368.535863 L597.573026,368.535863 C597.573026,367.828428 597.472522,367.253113 597.271511,366.809901 C597.0705,366.366689 596.816033,366.0215 596.508102,365.774324 C596.200171,365.527148 595.85803,365.360946 595.48167,365.275713 C595.105309,365.19048 594.737508,365.152125 594.378255,365.160649 L593.428805,365.186218 C593.155088,365.194742 592.909174,365.222442 592.691056,365.26932 C592.472938,365.316199 592.289038,365.416346 592.139349,365.569766 C591.98966,365.723185 591.874188,365.949049 591.792928,366.247365 C591.711668,366.545681 591.671039,366.950532 591.671039,367.461931 L591.671039,371.386896 L594.763167,371.386896 L594.647693,369.123969 L596.674897,369.123969 L596.674897,375.49085 L594.942793,375.49085 C594.942793,374.945358 594.874364,374.514938 594.737506,374.199575 C594.600648,373.884213 594.416747,373.649825 594.185799,373.496405 C593.95485,373.342986 593.683276,373.251362 593.371068,373.22153 C593.05886,373.191698 592.723134,373.181044 592.363881,373.189568 L591.671039,373.202353 Z M621.336476,367.704844 L615.960536,382.049506 L613.509929,382.049506 L609.981567,373.432481 C609.878924,373.193828 609.748482,372.867816 609.59024,372.454436 C609.431997,372.041055 609.267342,371.574411 609.096269,371.054489 C608.925196,370.534567 608.756264,369.974168 608.589468,369.373274 C608.422672,368.772381 608.270847,368.156581 608.133989,367.525856 L608.108328,367.525856 C608.133989,368.506036 608.155373,369.42654 608.17248,370.287395 C608.189587,371.148249 608.193864,371.974998 608.185311,372.767666 L608.146819,377.49808 C608.146819,377.736733 608.144681,377.97112 608.140404,378.20125 C608.136127,378.431379 608.127574,378.650851 608.114743,378.859672 C608.101913,379.068493 608.089083,379.258134 608.076252,379.4286 C608.063422,379.599067 608.048453,379.739699 608.031346,379.850502 L610.020059,379.773793 L610.020059,381.793807 L604.028259,381.793807 L604.028259,380.067846 C604.319083,380.050799 604.579965,380.020968 604.810914,379.978351 C605.041862,379.935735 605.236455,379.84198 605.394697,379.697083 C605.55294,379.552187 605.674827,379.330584 605.760364,379.032268 C605.8459,378.733953 605.892945,378.320578 605.901498,377.792133 L606.055463,367.755984 C606.055463,367.517331 606.05974,367.282944 606.068294,367.052814 C606.076847,366.822685 606.085401,366.603213 606.093954,366.394392 C606.102508,366.185571 606.1132,365.99593 606.12603,365.825464 C606.138861,365.654997 606.15383,365.514365 606.170937,365.403562 L604.182224,365.480271 L604.182224,363.460257 L609.994398,363.460257 L613.971823,373.598685 C614.091574,373.905524 614.222016,374.250713 614.363151,374.634262 C614.504286,375.017811 614.643281,375.401354 614.780139,375.784903 C614.916997,376.168452 615.043162,376.532818 615.158636,376.878012 C615.27411,377.223206 615.36606,377.506602 615.43449,377.728208 L615.46015,377.728208 C615.682545,377.123053 615.889968,376.537084 616.082425,375.970284 C616.274882,375.403484 616.482305,374.838823 616.7047,374.276284 L620.759108,363.460257 L626.82789,363.460257 L626.82789,365.186218 C626.528512,365.203265 626.261215,365.233096 626.025989,365.275713 C625.790764,365.318329 625.589756,365.412084 625.42296,365.556981 C625.256164,365.701877 625.132138,365.92348 625.050878,366.221796 C624.969619,366.520111 624.937543,366.933486 624.95465,367.461931 L625.352393,377.49808 C625.360947,377.736733 625.363085,377.97112 625.358808,378.20125 C625.354531,378.431379 625.348116,378.650851 625.339563,378.859672 C625.331009,379.068493 625.318179,379.258134 625.301071,379.4286 C625.283964,379.599067 625.266857,379.739699 625.24975,379.850502 L627.225632,379.773793 L627.225632,381.793807 L619.925131,381.793807 L619.925131,380.067846 C620.215955,380.050799 620.481115,380.020968 620.720617,379.978351 C620.960119,379.935735 621.163265,379.84198 621.330061,379.697083 C621.496857,379.552187 621.620883,379.330584 621.702143,379.032268 C621.783402,378.733953 621.815478,378.320578 621.798371,377.792133 L621.580254,372.243485 C621.5717,372.090065 621.55887,371.840762 621.541763,371.495568 C621.524655,371.150374 621.50541,370.7647 621.484026,370.338534 C621.462642,369.912369 621.441258,369.467032 621.419874,369.002512 C621.39849,368.537992 621.379244,368.10544 621.362137,367.704844 L621.336476,367.704844 Z M638.928501,375.158443 C638.723214,375.166966 638.537175,375.173359 638.370379,375.17762 C638.203583,375.181882 638.045343,375.184013 637.895654,375.184013 L637.45942,375.184013 C637.318285,375.184013 637.170737,375.179751 637.016771,375.171228 L637.016771,377.485295 C637.016771,377.962601 637.008218,378.420722 636.99111,378.859672 C636.974003,379.298623 636.948342,379.628896 636.914128,379.850502 L639.146618,379.773793 L639.146618,381.793807 L631.345732,381.793807 L631.345732,380.067846 C631.636556,380.050799 631.899577,380.023099 632.134802,379.984744 C632.370027,379.946389 632.566758,379.852634 632.725,379.703476 C632.883243,379.554318 633.005131,379.330584 633.090667,379.032268 C633.176203,378.733953 633.218971,378.320578 633.218971,377.792133 L633.218971,367.755984 C633.218971,367.517331 633.221109,367.282944 633.225386,367.052814 C633.229663,366.822685 633.236078,366.603213 633.244632,366.394392 C633.253186,366.185571 633.263877,365.99593 633.276708,365.825464 C633.289538,365.654997 633.304507,365.514365 633.321614,365.403562 L631.345732,365.480271 L631.345732,363.460257 L638.825858,363.409117 C639.963493,363.400594 640.996331,363.507133 641.924401,363.728739 C642.852472,363.950346 643.645811,364.293404 644.304441,364.757924 C644.963072,365.222445 645.472006,365.816937 645.83126,366.541418 C646.190513,367.2659 646.370137,368.135264 646.370137,369.149538 C646.37869,369.882543 646.23328,370.59636 645.933903,371.29101 C645.634525,371.98566 645.17905,372.614244 644.567465,373.176783 C643.955879,373.739321 643.183924,374.199573 642.251576,374.557552 C641.319229,374.915531 640.211548,375.115826 638.928501,375.158443 L638.928501,375.158443 Z M638.197168,373.291847 C638.915675,373.291847 639.535805,373.200223 640.057577,373.016972 C640.57935,372.83372 641.007026,372.563109 641.340618,372.20513 C641.67421,371.847151 641.920124,371.408207 642.078366,370.888285 C642.236608,370.368363 642.315729,369.776002 642.315729,369.111184 C642.315729,368.531598 642.260131,368.032992 642.148933,367.61535 C642.037736,367.197708 641.888049,366.846126 641.699869,366.560596 C641.511689,366.275065 641.295713,366.044939 641.051934,365.870211 C640.808155,365.695483 640.555826,365.563374 640.29494,365.473879 C640.034053,365.384384 639.773171,365.324722 639.512285,365.29489 C639.251399,365.265059 639.009762,365.250143 638.787367,365.250143 C638.505097,365.250143 638.254906,365.271451 638.036788,365.314067 C637.81867,365.356684 637.63477,365.450439 637.485081,365.595335 C637.335392,365.740232 637.21992,365.94905 637.13866,366.221796 C637.0574,366.494542 637.016771,366.861038 637.016771,367.321297 L637.016771,373.215138 C637.204951,373.232184 637.397405,373.249231 637.594139,373.266277 C637.790873,373.283324 637.991881,373.291847 638.197168,373.291847 L638.197168,373.291847 Z M655.317067,377.49808 C655.317067,377.736733 655.314929,377.97112 655.310652,378.20125 C655.306375,378.431379 655.29996,378.650851 655.291406,378.859672 C655.282853,379.068493 655.272161,379.258134 655.25933,379.4286 C655.2465,379.599067 655.231531,379.739699 655.214424,379.850502 L657.190306,379.773793 L657.190306,381.793807 L649.646028,381.793807 L649.646028,380.067846 C649.936852,380.050799 650.199873,380.023099 650.435098,379.984744 C650.670323,379.946389 650.867054,379.852634 651.025297,379.703476 C651.183539,379.554318 651.305427,379.330584 651.390963,379.032268 C651.4765,378.733953 651.519267,378.320578 651.519267,377.792133 L651.519267,367.755984 C651.519267,367.517331 651.521406,367.282944 651.525682,367.052814 C651.529959,366.822685 651.536374,366.603213 651.544928,366.394392 C651.553482,366.185571 651.564174,365.99593 651.577004,365.825464 C651.589834,365.654997 651.604803,365.514365 651.62191,365.403562 L649.646028,365.480271 L649.646028,363.460257 L657.190306,363.460257 L657.190306,365.186218 C656.890929,365.203265 656.62577,365.233096 656.394821,365.275713 C656.163873,365.318329 655.96928,365.412084 655.811038,365.556981 C655.652795,365.701877 655.530908,365.92348 655.445371,366.221796 C655.359835,366.520111 655.317067,366.933486 655.317067,367.461931 L655.317067,377.49808 Z M674.923466,377.613144 C675.21429,378.047833 675.475172,378.418592 675.706121,378.725431 C675.937069,379.03227 676.161599,379.283704 676.379717,379.47974 C676.597835,379.675776 676.824503,379.82067 677.059729,379.914427 C677.294954,380.008183 677.562251,380.059322 677.861629,380.067846 L677.861629,381.793807 L673.537782,381.793807 C673.229851,381.572201 672.917648,381.24832 672.601163,380.822155 C672.284678,380.395989 671.951091,379.897383 671.600391,379.326321 L669.67583,376.19402 C669.453436,375.836041 669.252428,375.537729 669.072801,375.299077 C668.893175,375.060424 668.726381,374.847344 668.572416,374.659832 C668.427004,374.668355 668.298701,374.672616 668.187503,374.672616 L667.853913,374.672616 L667.539568,374.672616 C667.432647,374.672616 667.315036,374.668355 667.186732,374.659832 L667.186732,377.485295 C667.186732,377.962601 667.178178,378.420722 667.161071,378.859672 C667.143964,379.298623 667.118303,379.628896 667.084089,379.850502 L669.316579,379.773793 L669.316579,381.793807 L661.515693,381.793807 L661.515693,380.067846 C661.806517,380.050799 662.069537,380.023099 662.304762,379.984744 C662.539988,379.946389 662.736719,379.852634 662.894961,379.703476 C663.053204,379.554318 663.175091,379.330584 663.260628,379.032268 C663.346164,378.733953 663.388932,378.320578 663.388932,377.792133 L663.388932,367.755984 C663.388932,367.517331 663.39107,367.282944 663.395347,367.052814 C663.399624,366.822685 663.406039,366.603213 663.414593,366.394392 C663.423146,366.185571 663.433838,365.99593 663.446669,365.825464 C663.459499,365.654997 663.474468,365.514365 663.491575,365.403562 L661.515693,365.480271 L661.515693,363.460257 L668.995819,363.409117 C670.133454,363.409117 671.162014,363.502872 672.081531,363.690385 C673.001048,363.877898 673.79011,364.186863 674.448741,364.61729 C675.107372,365.047717 675.61203,365.608117 675.962729,366.298505 C676.313429,366.988893 676.488776,367.83695 676.488776,368.842701 C676.497329,369.422286 676.407517,369.982685 676.219337,370.523915 C676.031157,371.065146 675.746752,371.561621 675.366115,372.013357 C674.985478,372.465092 674.506481,372.869943 673.92911,373.227922 C673.351739,373.585902 672.669596,373.87569 671.88266,374.097296 L671.88266,374.122866 C672.207699,374.250715 672.532732,374.468057 672.857771,374.774896 C673.18281,375.081735 673.460799,375.409877 673.691747,375.759333 L674.923466,377.613144 Z M668.469772,372.780451 C669.196832,372.780451 669.816962,372.701611 670.330181,372.54393 C670.8434,372.386249 671.262522,372.143338 671.587561,371.815191 C671.912599,371.487043 672.152098,371.0758 672.306064,370.581448 C672.460029,370.087095 672.537011,369.507519 672.537011,368.842701 C672.537011,368.280162 672.472859,367.800733 672.344555,367.404399 C672.21625,367.008065 672.049456,366.677792 671.844169,366.413569 C671.638881,366.149346 671.405798,365.940528 671.144912,365.787109 C670.884026,365.633689 670.621005,365.516495 670.355842,365.435524 C670.090679,365.354553 669.836212,365.303413 669.592433,365.282105 C669.348654,365.260797 669.136954,365.250143 668.957328,365.250143 C668.675057,365.250143 668.424867,365.271451 668.206749,365.314067 C667.988631,365.356684 667.80473,365.450439 667.655042,365.595335 C667.505353,365.740232 667.38988,365.94905 667.308621,366.221796 C667.227361,366.494542 667.186732,366.861038 667.186732,367.321297 L667.186732,372.690957 C667.392019,372.716526 667.60158,372.737834 667.815422,372.754881 C668.029263,372.771928 668.247377,372.780451 668.469772,372.780451 L668.469772,372.780451 Z M686.908604,373.202353 L686.908604,377.49808 C686.908604,377.736733 686.906466,377.96899 686.902189,378.194857 C686.897912,378.420725 686.891497,378.635935 686.882944,378.840495 C686.87439,379.045054 686.863698,379.230434 686.850868,379.396638 C686.838037,379.562843 686.823069,379.701344 686.805961,379.812148 L690.334323,379.799363 C690.719237,379.799363 691.104145,379.735439 691.489059,379.607589 C691.873973,379.479739 692.216114,379.268791 692.515492,378.974736 C692.814869,378.680682 693.058645,378.292877 693.246825,377.81131 C693.435005,377.329743 693.529094,376.735251 693.529094,376.027816 L695.261198,376.027816 L695.107234,381.793807 L681.237565,381.793807 L681.237565,380.067846 C681.528389,380.050799 681.79141,380.020968 682.026635,379.978351 C682.26186,379.935735 682.458591,379.84198 682.616834,379.697083 C682.775076,379.552187 682.896964,379.330584 682.9825,379.032268 C683.068037,378.733953 683.110804,378.320578 683.110804,377.792133 L683.110804,367.755984 C683.110804,367.517331 683.112943,367.282944 683.11722,367.052814 C683.121496,366.822685 683.127912,366.603213 683.136465,366.394392 C683.145019,366.185571 683.155711,365.99593 683.168541,365.825464 C683.181372,365.654997 683.19634,365.514365 683.213448,365.403562 L681.237565,365.480271 L681.237565,363.460257 L694.388731,363.460257 L694.542696,368.535863 L692.810591,368.535863 C692.810591,367.828428 692.710087,367.253113 692.509076,366.809901 C692.308066,366.366689 692.053599,366.0215 691.745667,365.774324 C691.437736,365.527148 691.095595,365.360946 690.719235,365.275713 C690.342874,365.19048 689.975073,365.152125 689.61582,365.160649 L688.66637,365.186218 C688.392653,365.194742 688.14674,365.222442 687.928622,365.26932 C687.710504,365.316199 687.526603,365.416346 687.376914,365.569766 C687.227225,365.723185 687.111753,365.949049 687.030493,366.247365 C686.949234,366.545681 686.908604,366.950532 686.908604,367.461931 L686.908604,371.386896 L690.000732,371.386896 L689.885259,369.123969 L691.912463,369.123969 L691.912463,375.49085 L690.180358,375.49085 C690.180358,374.945358 690.11193,374.514938 689.975071,374.199575 C689.838213,373.884213 689.654312,373.649825 689.423364,373.496405 C689.192415,373.342986 688.920841,373.251362 688.608633,373.22153 C688.296425,373.191698 687.9607,373.181044 687.601446,373.189568 L686.908604,373.202353 Z M711.712857,372.358549 C711.712857,373.492149 711.834745,374.531978 712.078524,375.478065 C712.322303,376.424153 712.677274,377.240248 713.143447,377.926374 C713.609621,378.612501 714.184845,379.1452 714.869137,379.524487 C715.553429,379.903775 716.340352,380.093415 717.229932,380.093415 C717.777365,380.093415 718.329067,380.020968 718.885054,379.876072 C719.441041,379.731176 719.979913,379.520227 720.501685,379.243219 C721.023457,378.966212 721.517423,378.627415 721.983597,378.22682 C722.449771,377.826224 722.866755,377.374495 723.234561,376.87162 L724.491941,378.022261 C723.850418,378.908685 723.178966,379.624633 722.477567,380.170125 C721.776168,380.715617 721.079057,381.139645 720.386211,381.442223 C719.693366,381.7448 719.021915,381.949357 718.371838,382.055898 C717.721761,382.162439 717.127291,382.215709 716.588411,382.215709 C715.228382,382.215709 713.994537,381.974929 712.886839,381.493362 C711.779142,381.011795 710.83184,380.351248 710.044905,379.511702 C709.257969,378.672156 708.650669,377.685598 708.222987,376.551997 C707.795305,375.418397 707.581467,374.199582 707.581467,372.895515 C707.581467,372.102847 707.667002,371.30806 707.838075,370.511131 C708.009148,369.714201 708.263615,368.951376 708.601484,368.222633 C708.939353,367.49389 709.364891,366.814166 709.878109,366.183441 C710.391328,365.552716 710.987936,365.00297 711.667951,364.534188 C712.347966,364.065406 713.113506,363.698909 713.964593,363.434687 C714.815681,363.170464 715.750153,363.038355 716.768037,363.038355 C717.110183,363.038355 717.471569,363.066055 717.852206,363.121457 C718.232844,363.176858 718.61989,363.259959 719.013358,363.370762 C719.406826,363.481565 719.796011,363.615805 720.180925,363.773487 C720.565839,363.931168 720.93364,364.116547 721.28434,364.32963 L721.310001,364.32963 L721.220188,363.217343 L723.247392,363.217343 L723.247392,369.341312 L721.528117,369.341312 C721.288615,367.883826 720.805342,366.786466 720.078282,366.049199 C719.351222,365.311933 718.36329,364.943305 717.114458,364.943305 C716.199218,364.943305 715.401602,365.152123 714.721587,365.569766 C714.041572,365.987408 713.479179,366.541415 713.034389,367.231803 C712.589599,367.922191 712.258151,368.712716 712.040033,369.603402 C711.821915,370.494088 711.712857,371.412461 711.712857,372.358549 L711.712857,372.358549 Z M737.105769,376.321869 L731.396239,376.424148 L730.972835,377.651499 C730.930067,377.770825 730.876608,377.919981 730.812455,378.098971 C730.748303,378.27796 730.675598,378.467601 730.594338,378.667899 C730.513079,378.868197 730.43182,379.06423 730.350561,379.256004 C730.269301,379.447779 730.198735,379.620373 730.138859,379.773793 L732.012098,379.697083 L732.012098,381.793807 L726.37955,381.793807 L726.37955,379.991136 C726.747357,379.991136 727.057422,379.908035 727.309755,379.741831 C727.562087,379.575626 727.78234,379.356154 727.970521,379.083408 C728.158701,378.810662 728.325494,378.493173 728.470906,378.130933 C728.616318,377.768692 728.761728,377.391541 728.90714,376.999469 L734.039302,363 L735.86122,363 L741.468107,377.267952 C741.519429,377.395801 741.581442,377.566265 741.654148,377.779348 C741.726854,377.992431 741.801697,378.220426 741.87868,378.46334 C741.955663,378.706255 742.024091,378.949165 742.083966,379.19208 C742.143842,379.434994 742.18661,379.654466 742.212271,379.850502 L743.726258,379.773793 L743.726258,381.793807 L736.643875,381.793807 L736.643875,380.067846 C737.114325,380.067846 737.443636,379.976221 737.631816,379.79297 C737.819996,379.609719 737.914085,379.360416 737.914085,379.045053 C737.914085,378.866064 737.888424,378.6679 737.837102,378.450555 C737.78578,378.233211 737.717352,378.000954 737.631816,377.753778 L737.105769,376.321869 Z M732.06342,374.468058 L736.438588,374.468058 L735.24536,371.182338 C735.014412,370.54309 734.809128,369.910243 734.629501,369.28378 C734.449874,368.657316 734.317295,368.101179 734.231758,367.61535 L734.206098,367.61535 C734.137668,367.913666 734.030749,368.356871 733.885337,368.94498 C733.739925,369.533088 733.526087,370.240513 733.243817,371.067274 L732.06342,374.468058 Z M760.625442,363.460257 L760.779407,369.392452 L759.047302,369.392452 C759.047302,368.003152 758.760759,366.956931 758.187665,366.253758 C757.614571,365.550585 756.819093,365.203265 755.801209,365.211788 L754.54383,365.224573 L754.54383,377.49808 C754.54383,377.736733 754.541691,377.97112 754.537415,378.20125 C754.533138,378.431379 754.526723,378.650851 754.518169,378.859672 C754.509615,379.068493 754.498923,379.258134 754.486093,379.4286 C754.473262,379.599067 754.458294,379.739699 754.441186,379.850502 L756.545373,379.773793 L756.545373,381.793807 L748.872791,381.793807 L748.872791,380.067846 C749.163615,380.059322 749.426635,380.031622 749.66186,379.984744 C749.897086,379.937865 750.093817,379.84198 750.252059,379.697083 C750.410302,379.552187 750.532189,379.330584 750.617726,379.032268 C750.703262,378.733953 750.74603,378.320578 750.74603,377.792133 L750.74603,365.250143 L749.527141,365.250143 C748.526365,365.250143 747.737303,365.586809 747.159931,366.26015 C746.58256,366.933492 746.289602,367.977582 746.281049,369.392452 L744.548944,369.392452 L744.702909,363.460257 L760.625442,363.460257 Z M769.903365,373.202353 L769.903365,377.49808 C769.903365,377.736733 769.901226,377.96899 769.896949,378.194857 C769.892673,378.420725 769.886257,378.635935 769.877704,378.840495 C769.86915,379.045054 769.858458,379.230434 769.845628,379.396638 C769.832797,379.562843 769.817829,379.701344 769.800721,379.812148 L773.329083,379.799363 C773.713997,379.799363 774.098905,379.735439 774.483819,379.607589 C774.868733,379.479739 775.210874,379.268791 775.510252,378.974736 C775.809629,378.680682 776.053405,378.292877 776.241585,377.81131 C776.429765,377.329743 776.523854,376.735251 776.523854,376.027816 L778.255959,376.027816 L778.101994,381.793807 L764.232325,381.793807 L764.232325,380.067846 C764.523149,380.050799 764.78617,380.020968 765.021395,379.978351 C765.256621,379.935735 765.453352,379.84198 765.611594,379.697083 C765.769836,379.552187 765.891724,379.330584 765.977261,379.032268 C766.062797,378.733953 766.105565,378.320578 766.105565,377.792133 L766.105565,367.755984 C766.105565,367.517331 766.107703,367.282944 766.11198,367.052814 C766.116257,366.822685 766.122672,366.603213 766.131225,366.394392 C766.139779,366.185571 766.150471,365.99593 766.163301,365.825464 C766.176132,365.654997 766.191101,365.514365 766.208208,365.403562 L764.232325,365.480271 L764.232325,363.460257 L777.383491,363.460257 L777.537456,368.535863 L775.805351,368.535863 C775.805351,367.828428 775.704847,367.253113 775.503837,366.809901 C775.302826,366.366689 775.048359,366.0215 774.740427,365.774324 C774.432496,365.527148 774.090355,365.360946 773.713995,365.275713 C773.337635,365.19048 772.969833,365.152125 772.61058,365.160649 L771.66113,365.186218 C771.387413,365.194742 771.1415,365.222442 770.923382,365.26932 C770.705264,365.316199 770.521363,365.416346 770.371674,365.569766 C770.221986,365.723185 770.106513,365.949049 770.025253,366.247365 C769.943994,366.545681 769.903365,366.950532 769.903365,367.461931 L769.903365,371.386896 L772.995492,371.386896 L772.880019,369.123969 L774.907223,369.123969 L774.907223,375.49085 L773.175118,375.49085 C773.175118,374.945358 773.10669,374.514938 772.969831,374.199575 C772.832973,373.884213 772.649073,373.649825 772.418124,373.496405 C772.187176,373.342986 771.915601,373.251362 771.603393,373.22153 C771.291185,373.191698 770.95546,373.181044 770.596206,373.189568 L769.903365,373.202353 Z M795.745341,377.613144 C796.036165,378.047833 796.297047,378.418592 796.527995,378.725431 C796.758944,379.03227 796.983474,379.283704 797.201592,379.47974 C797.41971,379.675776 797.646378,379.82067 797.881603,379.914427 C798.116828,380.008183 798.384126,380.059322 798.683504,380.067846 L798.683504,381.793807 L794.359657,381.793807 C794.051726,381.572201 793.739522,381.24832 793.423037,380.822155 C793.106552,380.395989 792.772965,379.897383 792.422266,379.326321 L790.497705,376.19402 C790.27531,375.836041 790.074302,375.537729 789.894676,375.299077 C789.715049,375.060424 789.548256,374.847344 789.39429,374.659832 C789.248878,374.668355 789.120575,374.672616 789.009378,374.672616 L788.675787,374.672616 L788.361442,374.672616 C788.254522,374.672616 788.136911,374.668355 788.008606,374.659832 L788.008606,377.485295 C788.008606,377.962601 788.000053,378.420722 787.982945,378.859672 C787.965838,379.298623 787.940178,379.628896 787.905963,379.850502 L790.138454,379.773793 L790.138454,381.793807 L782.337567,381.793807 L782.337567,380.067846 C782.628391,380.050799 782.891412,380.023099 783.126637,379.984744 C783.361862,379.946389 783.558593,379.852634 783.716836,379.703476 C783.875078,379.554318 783.996966,379.330584 784.082502,379.032268 C784.168039,378.733953 784.210806,378.320578 784.210806,377.792133 L784.210806,367.755984 C784.210806,367.517331 784.212945,367.282944 784.217221,367.052814 C784.221498,366.822685 784.227913,366.603213 784.236467,366.394392 C784.245021,366.185571 784.255713,365.99593 784.268543,365.825464 C784.281374,365.654997 784.296342,365.514365 784.313449,365.403562 L782.337567,365.480271 L782.337567,363.460257 L789.817693,363.409117 C790.955328,363.409117 791.983889,363.502872 792.903406,363.690385 C793.822923,363.877898 794.611985,364.186863 795.270616,364.61729 C795.929246,365.047717 796.433904,365.608117 796.784604,366.298505 C797.135303,366.988893 797.31065,367.83695 797.31065,368.842701 C797.319204,369.422286 797.229392,369.982685 797.041212,370.523915 C796.853031,371.065146 796.568627,371.561621 796.18799,372.013357 C795.807352,372.465092 795.328355,372.869943 794.750984,373.227922 C794.173613,373.585902 793.49147,373.87569 792.704535,374.097296 L792.704535,374.122866 C793.029573,374.250715 793.354607,374.468057 793.679645,374.774896 C794.004684,375.081735 794.282673,375.409877 794.513622,375.759333 L795.745341,377.613144 Z M789.291647,372.780451 C790.018707,372.780451 790.638837,372.701611 791.152056,372.54393 C791.665274,372.386249 792.084397,372.143338 792.409435,371.815191 C792.734474,371.487043 792.973972,371.0758 793.127938,370.581448 C793.281904,370.087095 793.358885,369.507519 793.358885,368.842701 C793.358885,368.280162 793.294734,367.800733 793.166429,367.404399 C793.038124,367.008065 792.871331,366.677792 792.666043,366.413569 C792.460756,366.149346 792.227672,365.940528 791.966786,365.787109 C791.7059,365.633689 791.442879,365.516495 791.177716,365.435524 C790.912553,365.354553 790.658086,365.303413 790.414307,365.282105 C790.170528,365.260797 789.958829,365.250143 789.779202,365.250143 C789.496932,365.250143 789.246741,365.271451 789.028623,365.314067 C788.810505,365.356684 788.626605,365.450439 788.476916,365.595335 C788.327227,365.740232 788.211755,365.94905 788.130495,366.221796 C788.049235,366.494542 788.008606,366.861038 788.008606,367.321297 L788.008606,372.690957 C788.213894,372.716526 788.423455,372.737834 788.637296,372.754881 C788.851137,372.771928 789.069252,372.780451 789.291647,372.780451 L789.291647,372.780451 Z M807.730479,377.49808 C807.730479,377.736733 807.728341,377.97112 807.724064,378.20125 C807.719787,378.431379 807.713372,378.650851 807.704818,378.859672 C807.696264,379.068493 807.685573,379.258134 807.672742,379.4286 C807.659912,379.599067 807.644943,379.739699 807.627836,379.850502 L809.603718,379.773793 L809.603718,381.793807 L802.05944,381.793807 L802.05944,380.067846 C802.350264,380.050799 802.613284,380.023099 802.84851,379.984744 C803.083735,379.946389 803.280466,379.852634 803.438708,379.703476 C803.596951,379.554318 803.718838,379.330584 803.804375,379.032268 C803.889911,378.733953 803.932679,378.320578 803.932679,377.792133 L803.932679,367.755984 C803.932679,367.517331 803.934817,367.282944 803.939094,367.052814 C803.943371,366.822685 803.949786,366.603213 803.95834,366.394392 C803.966893,366.185571 803.977585,365.99593 803.990416,365.825464 C804.003246,365.654997 804.018215,365.514365 804.035322,365.403562 L802.05944,365.480271 L802.05944,363.460257 L809.603718,363.460257 L809.603718,365.186218 C809.30434,365.203265 809.039181,365.233096 808.808233,365.275713 C808.577285,365.318329 808.382692,365.412084 808.22445,365.556981 C808.066207,365.701877 807.944319,365.92348 807.858783,366.221796 C807.773247,366.520111 807.730479,366.933486 807.730479,367.461931 L807.730479,377.49808 Z M830.133906,382.049506 L827.901416,382.049506 L819.4975,371.348542 C819.052711,370.77748 818.573714,370.125456 818.060495,369.392452 L818.034834,369.392452 L818.073325,377.49808 C818.073325,377.736733 818.071187,377.97112 818.06691,378.20125 C818.062633,378.431379 818.056218,378.650851 818.047664,378.859672 C818.039111,379.068493 818.028419,379.258134 818.015588,379.4286 C818.002758,379.599067 817.987789,379.739699 817.970682,379.850502 L819.946564,379.773793 L819.946564,381.793807 L813.954765,381.793807 L813.954765,380.067846 C814.245589,380.050799 814.50861,380.023099 814.743835,379.984744 C814.97906,379.946389 815.175791,379.852634 815.334034,379.703476 C815.492276,379.554318 815.614164,379.330584 815.6997,379.032268 C815.785237,378.733953 815.828004,378.320578 815.828004,377.792133 L815.763852,367.755984 C815.763852,367.517331 815.765991,367.282944 815.770267,367.052814 C815.774544,366.822685 815.780959,366.603213 815.789513,366.394392 C815.798067,366.185571 815.808759,365.99593 815.821589,365.825464 C815.83442,365.654997 815.849388,365.514365 815.866496,365.403562 L813.890613,365.480271 L813.890613,363.460257 L818.009173,363.460257 L826.041007,373.56033 C826.485797,374.122868 826.85146,374.606559 827.138007,375.011416 C827.424554,375.416274 827.670467,375.767855 827.875755,376.066171 L827.901416,376.066171 L827.901416,367.755984 C827.901416,367.517331 827.903554,367.282944 827.907831,367.052814 C827.912108,366.822685 827.918523,366.603213 827.927077,366.394392 C827.93563,366.185571 827.946322,365.99593 827.959153,365.825464 C827.971983,365.654997 827.986952,365.514365 828.004059,365.403562 L826.028177,365.480271 L826.028177,363.460257 L832.007146,363.460257 L832.007146,365.186218 C831.707768,365.203265 831.442609,365.233096 831.21166,365.275713 C830.980712,365.318329 830.786119,365.412084 830.627877,365.556981 C830.469634,365.701877 830.347747,365.92348 830.26221,366.221796 C830.176674,366.520111 830.133906,366.933486 830.133906,367.461931 L830.133906,382.049506 Z M852.255065,380.911649 L851.613545,380.911649 C851.108879,380.911649 850.60636,380.979835 850.105972,381.116208 C849.605584,381.252581 849.077404,381.401736 848.521417,381.563679 C847.96543,381.725622 847.362407,381.874778 846.71233,382.011151 C846.062253,382.147524 845.335204,382.215709 844.531161,382.215709 C843.102702,382.215709 841.832504,381.974929 840.72053,381.493362 C839.608556,381.011795 838.671946,380.351248 837.910672,379.511702 C837.149397,378.672156 836.569896,377.685598 836.172152,376.551997 C835.774407,375.418397 835.575538,374.199582 835.575538,372.895515 C835.575538,372.102847 835.658935,371.30806 835.825731,370.511131 C835.992527,369.714201 836.244856,368.951376 836.582725,368.222633 C836.920594,367.49389 837.341854,366.814166 837.84652,366.183441 C838.351185,365.552716 838.943516,365.00297 839.623531,364.534188 C840.303546,364.065406 841.066947,363.698909 841.913758,363.434687 C842.760569,363.170464 843.692903,363.038355 844.710786,363.038355 C845.052932,363.038355 845.439979,363.066055 845.871938,363.121457 C846.303897,363.176858 846.744403,363.259959 847.19347,363.370762 C847.642536,363.481565 848.083043,363.615805 848.515002,363.773487 C848.946961,363.931168 849.338284,364.116547 849.688984,364.32963 L849.714645,364.32963 L849.624832,363.217343 L851.652036,363.217343 L851.652036,369.341312 L849.932761,369.341312 C849.81301,368.608307 849.607726,367.966938 849.316902,367.417184 C849.026078,366.86743 848.66683,366.409309 848.239148,366.042807 C847.811466,365.676305 847.328192,365.401432 846.789312,365.218181 C846.250432,365.034929 845.67307,364.943305 845.057207,364.943305 C844.141967,364.943305 843.34649,365.152123 842.670752,365.569766 C841.995014,365.987408 841.436897,366.541415 840.996384,367.231803 C840.555871,367.922191 840.228699,368.712716 840.014858,369.603402 C839.801017,370.494088 839.694098,371.412461 839.694098,372.358549 C839.694098,373.492149 839.811709,374.534109 840.046934,375.484458 C840.282159,376.434807 840.630715,377.255163 841.092612,377.945552 C841.554509,378.63594 842.125456,379.1729 842.805471,379.556449 C843.485486,379.939998 844.274548,380.13177 845.172681,380.13177 C845.42929,380.13177 845.72011,380.116855 846.045149,380.087023 C846.370187,380.057191 846.703774,380.014575 847.04592,379.959174 C847.388066,379.903772 847.719515,379.831325 848.040277,379.741831 C848.361038,379.652336 848.645443,379.547927 848.893499,379.4286 L848.893499,376.999469 C848.893499,376.760816 848.895637,376.526429 848.899914,376.296299 C848.904191,376.06617 848.910606,375.846698 848.919159,375.637877 C848.927713,375.429056 848.938405,375.239415 848.951235,375.068948 C848.964066,374.898482 848.979035,374.75785 848.996142,374.647047 L847.020259,374.723756 L847.020259,372.703741 L854,372.703741 L854,374.429703 C853.700622,374.44675 853.441878,374.480843 853.22376,374.531983 C853.005642,374.583122 852.826019,374.687531 852.684883,374.845213 C852.543748,375.002894 852.436829,375.228758 852.364123,375.522813 C852.291417,375.816867 852.255065,376.211064 852.255065,376.705416 L852.255065,380.911649 Z" id="EMPAIRE-CATERING" transform="translate(720.000000, 372.607855) rotate(-90.000000) translate(-720.000000, -372.607855) "></path>
            </g>
        </g>
    </g>
</svg>