<?xml version="1.0" encoding="UTF-8" standalone="no"?>
<svg width="92px" height="92px" viewBox="0 0 92 92" version="1.1" xmlns="http://www.w3.org/2000/svg" xmlns:xlink="http://www.w3.org/1999/xlink">
    <!-- Generator: sketchtool 3.7 (28169) - http://www.bohemiancoding.com/sketch -->
    <title>59BF87E6-EFE6-487C-9FFC-CB90C4CB5065</title>
    <desc>Created with sketchtool.</desc>
    <defs>
        <linearGradient x1="50%" y1="-29.8697917%" x2="50%" y2="218.834635%" id="linearGradient-1">
            <stop stop-color="#E4C759" offset="0%"></stop>
            <stop stop-color="#8B5E2A" offset="100%"></stop>
        </linearGradient>
    </defs>
    <g id="Page-1" stroke="none" stroke-width="1" fill="none" fill-rule="evenodd">
        <g id="EC_mob" transform="translate(-271.000000, -855.000000)">
            <g id="Neobhodim" transform="translate(201.000000, 530.000000)">
                <g id="Group-31" transform="translate(0.000000, 130.000000)">
                    <g id="Group-24" transform="translate(0.000000, 196.000000)">
                        <g id="Group-17" transform="translate(71.000000, 0.000000)">
                            <g id="1480533559_valenticons-10" transform="translate(27.000000, 17.000000)" fill="url(#linearGradient-1)">
                                <g id="Layer_1">
                                    <path d="M37.8978261,13.3257919 C37.6434783,13.1538462 37.3043478,13.0678733 36.9652174,13.239819 L36.4565217,13.4977376 C36.3717391,13.239819 36.2869565,13.0678733 36.1173913,12.8959276 L35.9478261,12.7239819 L36.626087,6.1040724 C36.626087,5.760181 36.5413043,5.41628959 36.2021739,5.24434389 C35.9478261,5.07239819 35.6086957,5.07239819 35.2695652,5.24434389 L33.8282609,6.1040724 C33.8282609,6.1040724 33.8282609,6.1040724 33.7434783,6.01809955 L30.0130435,3.61085973 C29.7586957,3.43891403 29.4195652,3.43891403 29.1652174,3.61085973 L25.5195652,6.01809955 L25.0108696,5.67420814 L25.35,3.35294118 C25.4347826,3.00904977 25.2652174,2.75113122 25.0108696,2.49321267 C24.7565217,2.23529412 24.4173913,2.32126697 24.1630435,2.40723982 L22.0434783,3.52488688 C21.9586957,3.43891403 21.873913,3.35294118 21.7891304,3.26696833 L18.0586957,0.859728507 C17.8043478,0.687782805 17.4652174,0.687782805 17.2108696,0.859728507 L13.226087,3.18099548 L12.2086957,2.49321267 C11.9543478,2.32126697 11.6152174,2.32126697 11.276087,2.49321267 C11.0217391,2.66515837 10.8521739,3.00904977 10.8521739,3.35294118 L11.0217391,6.36199095 L9.91956522,5.67420814 C9.66521739,5.50226244 9.32608696,5.50226244 9.07173913,5.67420814 L4.8326087,8.08144796 L4.8326087,8.08144796 L3.64565217,7.30769231 C3.39130435,7.13574661 3.05217391,7.13574661 2.71304348,7.30769231 C2.45869565,7.47963801 2.28913043,7.82352941 2.28913043,8.16742081 L2.8826087,13.9276018 L2.11956522,13.4117647 C1.86521739,13.239819 1.44130435,13.239819 1.18695652,13.4117647 C0.932608696,13.5837104 0.763043478,13.9276018 0.847826087,14.2714932 L5.17173913,33.8733032 C5.25652174,34.0452489 5.34130435,34.2171946 5.51086957,34.3891403 L18.3130435,44.1900452 L16.1086957,43.2443439 C15.6847826,42.9864253 15.4304348,42.9864253 15.176087,42.9864253 C14.073913,42.9864253 13.1413043,43.9321267 13.1413043,45.0497738 C13.1413043,46.1674208 14.073913,47.1131222 15.176087,47.1131222 C15.4304348,47.1131222 15.6,47.1131222 15.8543478,47.0271493 L18.3130435,46.2533937 L14.8369565,48.7466063 C14.5826087,48.918552 14.4978261,49.1764706 14.4978261,49.4343891 L14.4978261,55.0226244 C14.4978261,55.280543 14.6673913,55.6244344 14.9217391,55.7104072 C15.0913043,55.7963801 15.176087,55.8823529 15.3456522,55.8823529 C15.4304348,55.8823529 15.6,55.8823529 15.6847826,55.7963801 L20.1782609,53.6470588 L25.1804348,55.7963801 C25.4347826,55.8823529 25.773913,55.8823529 25.9434783,55.7104072 C26.1978261,55.5384615 26.3673913,55.280543 26.3673913,55.0226244 L26.3673913,49.520362 C26.3673913,49.2624434 26.2826087,49.0045249 26.0282609,48.8325792 L23.3152174,46.7692308 L23.9086957,46.9411765 C24.0782609,47.0271493 24.3326087,47.0271493 24.5869565,47.0271493 C25.6891304,47.0271493 26.6217391,46.081448 26.6217391,44.9638009 C26.6217391,43.8461538 25.6891304,42.9004525 24.5869565,42.9004525 C24.3326087,42.9004525 24.0782609,42.9864253 23.823913,43.0723982 L22.0434783,43.8461538 L29.5891304,38.6877828 C29.9282609,38.4298643 30.0978261,37.9140271 29.8434783,37.5701357 L29.8434783,37.5701357 L33.8282609,34.3031674 C33.9978261,34.2171946 34.0826087,34.0452489 34.1673913,33.7873303 L38.1521739,14.1855204 C38.2369565,13.841629 38.1521739,13.4977376 37.8978261,13.3257919 L37.8978261,13.3257919 Z M29.4195652,16.9366516 L30.0130435,11.0045249 L34.676087,14.0995475 L34.676087,14.3574661 L29.4195652,16.9366516 L29.4195652,16.9366516 Z M9.15652174,18.1402715 L9.07173913,16.3348416 L18.3130435,22.438914 L16.6173913,23.2126697 L9.15652174,18.1402715 L9.15652174,18.1402715 Z M7.8,10.0588235 L9.07173913,9.37104072 L9.91956522,9.88687783 L8.64782609,10.5746606 L7.8,10.0588235 L7.8,10.0588235 Z M14.1586957,9.54298643 L13.9043478,12.2081448 C13.7347826,12.2081448 13.5652174,12.2081448 13.3956522,12.2941176 L12.2086957,12.9819005 L10.2586957,11.6923077 L14.1586957,9.54298643 L14.1586957,9.54298643 Z M13.7347826,14.0995475 L16.4478261,15.8190045 L16.4478261,15.8190045 L15.7695652,16.2488688 L14.1586957,15.1312217 L12.2086957,16.3348416 L11.1913043,15.6470588 L13.7347826,14.0995475 L13.7347826,14.0995475 Z M22.1282609,10.8325792 L22.1282609,10.8325792 L23.0608696,10.3167421 L25.6891304,12.0361991 L25.0108696,12.4660633 L23.3152174,11.2624434 L21.1956522,12.2941176 L20.4326087,11.8642534 L22.1282609,10.8325792 L22.1282609,10.8325792 Z M22.1282609,12.9819005 L23.3152174,12.2941176 L24.2478261,12.9819005 L22.976087,13.6696833 L22.1282609,12.9819005 L22.1282609,12.9819005 Z M28.1478261,12.4660633 L27.723913,16.8506787 L24.5869565,14.7013575 L28.1478261,12.4660633 L28.1478261,12.4660633 Z M29.7586957,8.85520362 L28.9108696,8.25339367 L30.0130435,7.73755656 L30.776087,8.25339367 L29.7586957,8.85520362 L29.7586957,8.85520362 Z M28.6565217,10.1447964 L28.6565217,10.1447964 L27.3,11.0045249 C27.3,11.0045249 27.3,11.0045249 27.2152174,10.918552 L25.4347826,9.80090498 L25.1804348,7.90950226 L28.6565217,10.1447964 L28.6565217,10.1447964 Z M18.3978261,20.3755656 L15.5152174,18.4841629 L17.55,17.1945701 C17.6347826,17.1945701 17.7195652,17.1085973 17.7195652,17.1085973 L18.8217391,16.3348416 L18.3978261,20.3755656 L18.3978261,20.3755656 Z M12.9717391,16.8506787 L14.1586957,16.1628959 L15.0065217,16.7647059 L13.9043478,17.4524887 L12.9717391,16.8506787 L12.9717391,16.8506787 Z M20.0086957,21.4932127 L20.0086957,21.4932127 L20.6869565,14.6153846 C20.6869565,14.2714932 20.6021739,13.9276018 20.2630435,13.7556561 C19.923913,13.5837104 19.6695652,13.5837104 19.3304348,13.7556561 L18.4826087,14.2714932 L18.3130435,12.3800905 L26.6217391,18.0542986 L20.0086957,21.4932127 L20.0086957,21.4932127 Z M34.2521739,11.7782805 L31.3695652,9.88687783 L34.676087,7.73755656 L34.2521739,11.7782805 L34.2521739,11.7782805 Z M29.5891304,5.58823529 L32.2173913,7.30769231 L31.5391304,7.73755656 L30.0130435,6.70588235 L28.1478261,7.73755656 L27.1304348,7.04977376 L29.5891304,5.58823529 L29.5891304,5.58823529 Z M22.8065217,8.51131222 C22.7217391,8.51131222 22.7217391,8.51131222 22.6369565,8.59728507 L21.7043478,9.11312217 L18.7369565,7.13574661 L23.2304348,4.81447964 L22.8065217,8.51131222 L22.8065217,8.51131222 Z M17.2108696,6.01809955 L16.6173913,5.58823529 L17.4652174,5.15837104 L18.1434783,5.58823529 L17.2108696,6.01809955 L17.2108696,6.01809955 Z M17.4652174,2.75113122 L20.1782609,4.47058824 L18.9913043,5.15837104 L17.55,4.21266968 L15.8543478,5.15837104 L14.7521739,4.47058824 L17.4652174,2.75113122 L17.4652174,2.75113122 Z M12.6326087,5.07239819 L20.1782609,10.0588235 L18.9065217,10.8325792 L17.8891304,10.1447964 C17.6347826,9.97285068 17.2956522,9.97285068 16.9565217,10.1447964 C16.7021739,10.3167421 16.5326087,10.6606335 16.5326087,10.918552 L16.7869565,14.0135747 L15.4304348,13.1538462 L15.9391304,8.08144796 C15.9391304,7.73755656 15.8543478,7.47963801 15.6,7.30769231 C15.3456522,7.13574661 15.0065217,7.13574661 14.7521739,7.30769231 L13.65,7.90950226 L12.8869565,7.47963801 L12.6326087,5.07239819 L12.6326087,5.07239819 Z M9.49565217,7.39366516 L11.8695652,8.85520362 L10.7673913,9.45701357 L9.15652174,8.33936652 L7.03695652,9.54298643 L6.44347826,9.11312217 L9.49565217,7.39366516 L9.49565217,7.39366516 Z M4.15434783,9.71493213 L10.5130435,14.0135747 L9.49565217,14.6153846 L8.56304348,14.0135747 C8.30869565,13.841629 7.96956522,13.841629 7.63043478,14.0135747 C7.29130435,14.1855204 7.20652174,14.5294118 7.20652174,14.7873303 L7.37608696,16.9366516 L4.74782609,15.1312217 L4.15434783,9.71493213 L4.15434783,9.71493213 Z M15.5152174,46.1674208 C15.4304348,46.1674208 15.2608696,46.2533937 15.176087,46.2533937 C14.4978261,46.2533937 13.9891304,45.7375566 13.9891304,45.0497738 C13.9891304,44.361991 14.4978261,43.8461538 15.176087,43.8461538 C15.3456522,43.8461538 15.5152174,43.8461538 15.6847826,43.9321267 L18.5673913,45.2217195 L15.5152174,46.1674208 L15.5152174,46.1674208 Z M24.5869565,53.7330317 L20.4326087,51.9276018 C20.3478261,51.841629 20.1782609,51.841629 20.0934783,51.841629 C20.0086957,51.841629 19.8391304,51.841629 19.7543478,51.9276018 L16.1086957,53.6470588 L16.1086957,49.8642534 L18.5673913,48.0588235 L17.7195652,50.2081448 C17.6347826,50.4660633 17.7195652,50.638009 17.973913,50.7239819 L18.1434783,50.7239819 C18.3130435,50.7239819 18.4826087,50.638009 18.5673913,50.4660633 L19.8391304,47.1131222 L19.923913,47.0271493 L21.1956522,50.4660633 C21.2804348,50.638009 21.45,50.7239819 21.6195652,50.7239819 L21.7891304,50.7239819 C22.0434783,50.638009 22.1282609,50.3800905 22.0434783,50.2081448 L20.8565217,47.1131222 L24.6717391,49.9502262 L24.6717391,53.7330317 L24.5869565,53.7330317 Z M23.9934783,43.9321267 C24.7565217,43.5882353 25.6891304,44.1900452 25.6891304,45.0497738 C25.6891304,45.8235294 24.8413043,46.4253394 24.0782609,46.1674208 L21.1108696,45.1357466 L23.9934783,43.9321267 L23.9934783,43.9321267 Z M19.923913,43.2443439 L6.69782609,33.0995475 L2.9673913,15.9049774 L23.4847826,29.918552 L28.0630435,37.7420814 L19.923913,43.2443439 L19.923913,43.2443439 Z M32.5565217,33.0995475 L28.9956522,36.0226244 L24.8413043,28.8868778 C24.7565217,28.800905 24.6717391,28.7149321 24.5869565,28.6289593 L18.3130435,24.3303167 L36.2021739,15.561086 L32.5565217,33.0995475 L32.5565217,33.0995475 Z" id="Shape"></path>
                                </g>
                            </g>
                            <circle id="Oval-1" stroke="url(#linearGradient-1)" cx="45" cy="45" r="45"></circle>
                        </g>
                    </g>
                </g>
            </g>
        </g>
    </g>
</svg>