<?xml version="1.0" encoding="UTF-8" standalone="no"?>
<svg width="92px" height="92px" viewBox="0 0 92 92" version="1.1" xmlns="http://www.w3.org/2000/svg" xmlns:xlink="http://www.w3.org/1999/xlink">
    <!-- Generator: sketchtool 3.7 (28169) - http://www.bohemiancoding.com/sketch -->
    <title>44A5CE43-9865-4213-A7DE-A855E531107C</title>
    <desc>Created with sketchtool.</desc>
    <defs>
        <linearGradient x1="50%" y1="-29.8697917%" x2="50%" y2="218.834635%" id="linearGradient-1">
            <stop stop-color="#E4C759" offset="0%"></stop>
            <stop stop-color="#8B5E2A" offset="100%"></stop>
        </linearGradient>
    </defs>
    <g id="Page-1" stroke="none" stroke-width="1" fill="none" fill-rule="evenodd">
        <g id="menu" transform="translate(-1073.000000, -1692.000000)">
            <g id="Group-32" transform="translate(174.000000, 1574.000000)">
                <g id="Group-48" transform="translate(0.000000, 119.000000)">
                    <g id="Group-14" transform="translate(773.000000, 0.000000)">
                        <g id="Group-5" transform="translate(127.000000, 0.000000)">
                            <ellipse id="Oval-1" stroke="url(#linearGradient-1)" cx="45" cy="45" rx="45" ry="45"></ellipse>
                            <g id="1479331923_Streamline-99" transform="translate(32.000000, 22.000000)" fill="url(#linearGradient-1)">
                                <g id="Expanded">
                                    <g id="Group">
                                        <path d="M20.25,46 C19.71675,46 19.2857143,45.571625 19.2857143,45.0416667 L19.2857143,0.958333333 C19.2857143,0.428375 19.71675,0 20.25,0 C20.78325,0 21.2142857,0.428375 21.2142857,0.958333333 L21.2142857,45.0416667 C21.2142857,45.571625 20.78325,46 20.25,46 L20.25,46 Z" id="Shape"></path>
                                        <path d="M26.0357143,29.7083333 L20.25,29.7083333 C19.71675,29.7083333 19.2857143,29.2799583 19.2857143,28.75 C19.2857143,28.2200417 19.71675,27.7916667 20.25,27.7916667 L25.0675714,27.7916667 C24.9393214,11.68975 21.6106071,2.2425 20.2326429,1.91475 C19.7003571,1.91475 19.2770357,1.48733333 19.2770357,0.957375 C19.2770357,0.428375 19.71675,0 20.25,0 C24.2884286,0 27,14.8656667 27,28.75 C27,29.2799583 26.5689643,29.7083333 26.0357143,29.7083333 L26.0357143,29.7083333 Z" id="Shape"></path>
                                        <path d="M6.75,17.25 C3.02882143,17.25 0,14.239875 0,10.5416667 L0,0.958333333 C0,0.428375 0.431035714,0 0.964285714,0 C1.49753571,0 1.92857143,0.428375 1.92857143,0.958333333 L1.92857143,10.5416667 C1.92857143,13.1837917 4.09146429,15.3333333 6.75,15.3333333 C9.40853571,15.3333333 11.5714286,13.1837917 11.5714286,10.5416667 L11.5714286,0.958333333 C11.5714286,0.428375 12.0024643,0 12.5357143,0 C13.0689643,0 13.5,0.428375 13.5,0.958333333 L13.5,10.5416667 C13.5,14.239875 10.4711786,17.25 6.75,17.25 L6.75,17.25 Z" id="Shape"></path>
                                        <path d="M6.75,46 C6.21675,46 5.78571429,45.571625 5.78571429,45.0416667 L5.78571429,0.958333333 C5.78571429,0.428375 6.21675,0 6.75,0 C7.28325,0 7.71428571,0.428375 7.71428571,0.958333333 L7.71428571,45.0416667 C7.71428571,45.571625 7.28325,46 6.75,46 L6.75,46 Z" id="Shape"></path>
                                    </g>
                                </g>
                            </g>
                        </g>
                    </g>
                </g>
            </g>
        </g>
    </g>
</svg>