<?xml version="1.0" encoding="UTF-8" standalone="no"?>
<svg width="30px" height="30px" viewBox="0 0 30 30" version="1.1" xmlns="http://www.w3.org/2000/svg" xmlns:xlink="http://www.w3.org/1999/xlink">
    <!-- Generator: sketchtool 3.7 (28169) - http://www.bohemiancoding.com/sketch -->
    <title>4827C3BE-BE93-420F-907C-BB54FF225939</title>
    <desc>Created with sketchtool.</desc>
    <defs>
        <linearGradient x1="50%" y1="-29.8697917%" x2="50%" y2="218.834635%" id="linearGradient-1">
            <stop stop-color="#E4C759" offset="0%"></stop>
            <stop stop-color="#8B5E2A" offset="100%"></stop>
        </linearGradient>
    </defs>
    <g id="Page-1" stroke="none" stroke-width="1" fill="none" fill-rule="evenodd">
        <g id="Main" transform="translate(-419.000000, -3961.000000)" fill="url(#linearGradient-1)">
            <g id="Contacts" transform="translate(0.000000, 3690.000000)">
                <g id="Group-46" transform="translate(141.000000, 104.000000)">
                    <g id="Group-38" transform="translate(31.000000, 71.000000)">
                        <g id="Group-36" transform="translate(95.000000, 96.000000)">
                            <g id="instagram-with-circle" transform="translate(152.000000, 0.000000)">
                                <g id="Instagram_w_x2F__circle">
                                    <path d="M19.5,15 C19.5,17.4855 17.4855,19.5 15,19.5 C12.5145,19.5 10.5,17.4855 10.5,15 C10.5,14.7435 10.527,14.493 10.5735,14.25 L9,14.25 L9,20.2455 C9,20.6625 9.3375,21 9.7545,21 L20.247,21 C20.6625,21 21,20.6625 21,20.2455 L21,14.25 L19.4265,14.25 C19.473,14.493 19.5,14.7435 19.5,15 L19.5,15 Z M15,18 C16.656,18 18,16.656 18,15 C18,13.344 16.656,12 15,12 C13.344,12 12,13.344 12,15 C12,16.656 13.344,18 15,18 L15,18 Z M18.6,11.85 L20.3985,11.85 C20.6475,11.85 20.85,11.6475 20.85,11.4 L20.85,9.6015 C20.85,9.3525 20.6475,9.15 20.3985,9.15 L18.6,9.15 C18.351,9.15 18.1485,9.3525 18.1485,9.6015 L18.1485,11.4 C18.15,11.6475 18.3525,11.85 18.6,11.85 L18.6,11.85 Z M15,0.6 C7.047,0.6 0.6,7.047 0.6,15 C0.6,22.953 7.047,29.4 15,29.4 C22.953,29.4 29.4,22.953 29.4,15 C29.4,7.047 22.953,0.6 15,0.6 L15,0.6 Z M22.5,20.8335 C22.5,21.75 21.75,22.5 20.8335,22.5 L9.1665,22.5 C8.25,22.5 7.5,21.75 7.5,20.8335 L7.5,9.1665 C7.5,8.25 8.25,7.5 9.1665,7.5 L20.8335,7.5 C21.75,7.5 22.5,8.25 22.5,9.1665 L22.5,20.8335 L22.5,20.8335 Z" id="Shape"></path>
                                </g>
                            </g>
                        </g>
                    </g>
                </g>
            </g>
        </g>
    </g>
</svg>